2011.08.18 14h 29m 07s 727ms [LOG] File used for logging:'D:/Proyecto/Nomad/Software/Application/UpdateManager/Output/Logger/2011/2011_August/2011_August_18/'
2011.08.18 14h 29m 07s 727ms [LOG] Log file 'D:/Proyecto/Nomad/Software/Application/UpdateManager/Output/Logger' created
2011.08.18 14h 29m 07s 836ms [UPD] Setting up the repository IRIS_IAA
2011.08.18 14h 29m 07s 883ms [UPD] Using local git version: 1.7.6.msysgit.0
