2012.04.01 02h 28m 28s 147ms [LOG] File used for logging:'E:/Proyecto/UpdateManager/Output/Logger/2012/2012_April/2012_April_01/'
2012.04.01 02h 28m 28s 148ms [LOG] Log file 'E:/Proyecto/UpdateManager/Output/Logger' created
2012.04.01 02h 28m 34s 004ms [UPD] Setting up the repository Carmenes Simulator
