2012.04.01 20h 08m 04s 025ms [LOG] File used for logging:'D:/Proyecto/UpdateManager/Output/Logger/2012/2012_April/2012_April_01/'
2012.04.01 20h 08m 04s 025ms [LOG] Log file 'D:/Proyecto/UpdateManager/Output/Logger' created
2012.04.01 20h 08m 04s 166ms [UPD] Setting up the repository 'Carmenes Simulator'
2012.04.01 20h 08m 04s 307ms [UPD] Logged in repository 'Carmenes Simulator' getting last changes
2012.04.01 20h 08m 04s 322ms [UPD] Clonning remote repository 'ssh://deploy@161.111.164.212:7272/media/data/server/git/Deploy/Carmenes'
2012.04.01 20h 08m 56s 603ms [UPD] Cloned remote repository 'ssh://deploy@161.111.164.212:7272/media/data/server/git/Deploy/Carmenes' sucessfully
2012.04.01 20h 08m 56s 619ms [UPD] Getting last changes of remote repository 'ssh://deploy@161.111.164.212:7272/media/data/server/git/Deploy/Carmenes'
2012.04.01 20h 08m 56s 650ms [UPD] myRepository::gitPull().No head exception.org.eclipse.jgit.api.errors.NoHeadException: Pull on repository without HEAD currently not supported
