2012.04.01 20h 35m 29s 541ms [LOG] File used for logging:'D:/Proyecto/UpdateManager/Output/Logger/2012/2012_April/2012_April_01/'
2012.04.01 20h 35m 29s 541ms [LOG] Log file 'D:/Proyecto/UpdateManager/Output/Logger' created
2012.04.01 20h 35m 29s 682ms [UPD] Setting up the repository 'Carmenes Simulator'
