2012.04.01 01h 31m 40s 261ms [LOG] File used for logging:'E:/Proyecto/UpdateManager/Output/Logger/2012/2012_April/2012_April_01/'
2012.04.01 01h 31m 40s 261ms [LOG] Log file 'E:/Proyecto/UpdateManager/Output/Logger' created
2012.04.01 01h 31m 40s 354ms [UPD] Setting up the repository Carmenes Simulator
