2012.04.01 02h 36m 21s 826ms [LOG] File used for logging:'E:/Proyecto/UpdateManager/Output/Logger/2012/2012_April/2012_April_01/'
2012.04.01 02h 36m 21s 827ms [LOG] Log file 'E:/Proyecto/UpdateManager/Output/Logger' created
2012.04.01 02h 36m 25s 068ms [UPD] Setting up the repository Carmenes Simulator
