2012.04.01 20h 21m 21s 385ms [LOG] File used for logging:'D:/Proyecto/UpdateManager/Output/Logger/2012/2012_April/2012_April_01/'
2012.04.01 20h 21m 21s 385ms [LOG] Log file 'D:/Proyecto/UpdateManager/Output/Logger' created
2012.04.01 20h 21m 21s 525ms [UPD] Setting up the repository 'Carmenes Simulator'
2012.04.01 20h 21m 21s 666ms [UPD] Logged in repository 'Carmenes Simulator' getting last changes
2012.04.01 20h 21m 21s 682ms [UPD] Clonning remote repository 'ssh://deploy@161.111.164.212:7272/media/data/server/git/Deploy/Carmenes'
2012.04.01 20h 21m 27s 369ms [UPD] MyProgressMonitor::gitClone.Started with: 2 tasks
2012.04.01 20h 21m 27s 369ms [UPD] MyProgressMonitor::gitClone.Started task name 'remote: Counting objects' total work:0
2012.04.01 20h 21m 27s 385ms [UPD] MyProgressMonitor::gitClone.Completed task:11
2012.04.01 20h 21m 27s 385ms [UPD] MyProgressMonitor::gitClone.Started task name 'remote: Compressing objects' total work:8
2012.04.01 20h 21m 27s 385ms [UPD] MyProgressMonitor::gitClone.Completed task:1
2012.04.01 20h 21m 27s 385ms [UPD] MyProgressMonitor::gitClone.Completed task:1
2012.04.01 20h 21m 27s 385ms [UPD] MyProgressMonitor::gitClone.Completed task:1
2012.04.01 20h 21m 27s 385ms [UPD] MyProgressMonitor::gitClone.Completed task:1
2012.04.01 20h 21m 27s 385ms [UPD] MyProgressMonitor::gitClone.Completed task:1
2012.04.01 20h 21m 27s 385ms [UPD] MyProgressMonitor::gitClone.Completed task:1
2012.04.01 20h 21m 27s 385ms [UPD] MyProgressMonitor::gitClone.Completed task:1
2012.04.01 20h 21m 27s 385ms [UPD] MyProgressMonitor::gitClone.Completed task:1
2012.04.01 20h 21m 27s 385ms [UPD] MyProgressMonitor::gitClone.Completed task:0
2012.04.01 20h 21m 27s 385ms [UPD] MyProgressMonitor::gitClone.Started task name 'Receiving objects' total work:11
2012.04.01 20h 21m 27s 400ms [UPD] MyProgressMonitor::gitClone.Completed task:1
2012.04.01 20h 21m 27s 416ms [UPD] MyProgressMonitor::gitClone.Completed task:1
2012.04.01 20h 21m 27s 432ms [UPD] MyProgressMonitor::gitClone.Completed task:1
2012.04.01 20h 21m 27s 432ms [UPD] MyProgressMonitor::gitClone.Completed task:1
2012.04.01 20h 21m 27s 432ms [UPD] MyProgressMonitor::gitClone.Completed task:1
2012.04.01 20h 21m 27s 447ms [UPD] MyProgressMonitor::gitClone.Completed task:1
2012.04.01 20h 21m 27s 447ms [UPD] MyProgressMonitor::gitClone.Completed task:1
2012.04.01 20h 21m 27s 885ms [UPD] MyProgressMonitor::gitClone.Completed task:1
2012.04.01 20h 21m 27s 900ms [UPD] MyProgressMonitor::gitClone.Completed task:1
2012.04.01 20h 21m 27s 900ms [UPD] MyProgressMonitor::gitClone.Completed task:1
2012.04.01 20h 21m 27s 900ms [UPD] MyProgressMonitor::gitClone.Completed task:1
2012.04.01 20h 21m 27s 900ms [UPD] MyProgressMonitor::gitClone. Task end
2012.04.01 20h 21m 27s 963ms [UPD] MyProgressMonitor::gitClone.Started task name 'Updating references' total work:1
2012.04.01 20h 21m 27s 978ms [UPD] MyProgressMonitor::gitClone.Completed task:1
2012.04.01 20h 21m 27s 994ms [UPD] MyProgressMonitor::gitClone. Task end
2012.04.01 20h 21m 28s 025ms [UPD] Cloned remote repository 'ssh://deploy@161.111.164.212:7272/media/data/server/git/Deploy/Carmenes' sucessfully
