2012.04.01 02h 46m 29s 063ms [LOG] File used for logging:'E:/Proyecto/UpdateManager/Output/Logger/2012/2012_April/2012_April_01/'
2012.04.01 02h 46m 29s 064ms [LOG] Log file 'E:/Proyecto/UpdateManager/Output/Logger' created
2012.04.01 02h 46m 29s 162ms [UPD] Setting up the repository Carmenes Simulator
2012.04.01 02h 46m 30s 396ms [UPD] No changes detected in the server
